Number,texture_field,SAND,SILT,CLAY,sand_tot_psa,silt_tot_psa,clay_tot_psa,Total
1,CLAY,0.2,0.18,0.63,19.8,17.8,62.4,100.0
2,CLAY LOAM,0.32,0.34,0.34,32.0,34.0,34.0,100.0
3,LOAM,0.41,0.4,0.19,41.0,40.0,19.0,100.0
4,LOAMY SAND,0.82,0.12,0.058,82.2,12.0,5.8,100.0
5,SAND,0.92,0.05,0.033,91.7,5.0,3.3,100.0
6,SANDY CLAY,0.52,0.067,0.42,51.6,6.7,41.7,100.0
7,SANDY CLAY LOAM,0.6,0.13,0.27,60.0,13.0,27.0,100.0
8,SANDY LOAM,0.65,0.25,0.1,65.0,25.0,10.0,100.0
9,SILT LOAM,0.21,0.65,0.13,21.2,65.7,13.1,100.0
10,SILTY CLAY,0.067,0.47,0.47,6.7,46.7,46.7,100.0
11,SILTY CLAY LOAM,0.1,0.56,0.34,10.0,56.0,34.0,100.0
12,SILT,0.073,0.87,0.053,7.3,87.3,5.3,100.0